<?xml version="1.0" encoding="utf-8"?>
<!-- Generator: Adobe Illustrator 19.0.0, SVG Export Plug-In . SVG Version: 6.00 Build 0)  -->
<svg version="1.1" id="Calque_1" xmlns="http://www.w3.org/2000/svg" xmlns:xlink="http://www.w3.org/1999/xlink" x="0px" y="0px"
	 viewBox="0 0 80 80" style="enable-background:new 0 0 80 80;" xml:space="preserve">
<style type="text/css">
	.st0{enable-background:new    ;}
	.st1{fill:#3A7E99;}
	.st2{fill:#57B2D7;}
	.st3{fill:#50A4C6;}
	.st4{fill:#943F65;}
	.st5{fill:#D35F90;}
	.st6{fill:#C25785;}
	.st7{fill:#965A43;}
	.st8{fill:#D78264;}
	.st9{fill:#C6785B;}
</style>
<g id="XMLID_1_">
	<g id="XMLID_44_">
		<g id="XMLID_20_" class="st0">
			<g id="XMLID_56_">
				<polygon id="XMLID_57_" class="st1" points="60.5,65.9 51.8,60.8 51.8,54.2 60.5,59.3 				"/>
			</g>
			<g id="XMLID_53_">
				<polygon id="XMLID_54_" class="st2" points="67.5,46.1 58.8,41.1 64.4,37.8 73.1,42.9 				"/>
			</g>
			<g id="XMLID_51_">
				<polygon id="XMLID_52_" class="st2" points="60.5,50.2 51.8,45.1 58.8,41.1 67.5,46.1 				"/>
			</g>
			<g id="XMLID_49_">
				<polygon id="XMLID_50_" class="st1" points="60.5,59.3 51.8,54.2 51.8,45.1 60.5,50.2 				"/>
			</g>
			<g id="XMLID_36_">
				<polygon id="XMLID_46_" class="st3" points="73.1,42.9 73.1,52 67.5,55.2 67.6,61.8 60.5,65.9 60.5,59.3 60.5,50.2 67.5,46.1 
									"/>
			</g>
		</g>
	</g>
	<g id="XMLID_37_">
		<g id="XMLID_17_" class="st0">
			<g id="XMLID_47_">
				<polygon id="XMLID_48_" class="st1" points="36.3,80 13.7,66.9 13.6,17 36.2,30.1 				"/>
			</g>
			<g id="XMLID_43_">
				<polygon id="XMLID_45_" class="st2" points="36.2,30.1 13.6,17 43,0 65.6,13.1 				"/>
			</g>
			<g id="XMLID_25_">
				<polygon id="XMLID_33_" class="st3" points="65.6,13.1 65.7,63 36.3,80 36.2,30.1 				"/>
			</g>
		</g>
	</g>
	<g id="XMLID_34_">
		<g id="XMLID_15_" class="st0">
			<g id="XMLID_41_">
				<polygon id="XMLID_42_" class="st1" points="46,69.8 40.8,66.8 40.8,56.7 46,59.8 				"/>
			</g>
			<g id="XMLID_31_">
				<polygon id="XMLID_40_" class="st2" points="46,59.8 40.8,56.7 59,46.2 64.2,49.2 				"/>
			</g>
			<g id="XMLID_22_">
				<polygon id="XMLID_24_" class="st3" points="64.2,49.2 64.2,59.3 46,69.8 46,59.8 				"/>
			</g>
		</g>
	</g>
	<g id="XMLID_32_">
		<g id="XMLID_14_" class="st0">
			<g id="XMLID_35_">
				<polygon id="XMLID_39_" class="st4" points="36.8,22.3 28.2,17.2 28.1,9.2 36.8,14.2 				"/>
			</g>
			<g id="XMLID_28_">
				<polygon id="XMLID_30_" class="st5" points="36.8,14.2 28.1,9.2 43.2,0.5 51.9,5.5 				"/>
			</g>
			<g id="XMLID_19_">
				<polygon id="XMLID_21_" class="st6" points="51.9,5.5 51.9,13.6 36.8,22.3 36.8,14.2 				"/>
			</g>
		</g>
	</g>
	<g id="XMLID_12_">
		<g id="XMLID_29_">
			<g id="XMLID_9_" class="st0">
				<g id="XMLID_18_">
					<polygon id="XMLID_26_" class="st4" points="23.1,57.1 17.9,54 17.9,48.4 23.1,51.4 					"/>
				</g>
				<g id="XMLID_13_">
					<polygon id="XMLID_16_" class="st5" points="23.1,51.4 17.9,48.4 22.1,46 27.3,49 					"/>
				</g>
				<g id="XMLID_10_">
					<polygon id="XMLID_11_" class="st6" points="27.3,49 27.3,54.7 23.1,57.1 23.1,51.4 					"/>
				</g>
			</g>
		</g>
		<g id="XMLID_27_">
			<g id="XMLID_2_" class="st0">
				<g id="XMLID_7_">
					<polygon id="XMLID_8_" class="st7" points="15.6,55.9 6.9,50.8 6.8,43.6 15.5,48.6 					"/>
				</g>
				<g id="XMLID_5_">
					<polygon id="XMLID_6_" class="st8" points="15.5,48.6 6.8,43.6 18.6,36.8 27.3,41.9 					"/>
				</g>
				<g id="XMLID_3_">
					<polygon id="XMLID_4_" class="st9" points="27.3,41.9 27.3,49.1 15.6,55.9 15.5,48.6 					"/>
				</g>
			</g>
		</g>
	</g>
</g>
</svg>
