<?xml version="1.0" encoding="utf-8"?>
<!-- Generator: Adobe Illustrator 19.0.0, SVG Export Plug-In . SVG Version: 6.00 Build 0)  -->
<svg version="1.1" xmlns="http://www.w3.org/2000/svg" xmlns:xlink="http://www.w3.org/1999/xlink" x="0px" y="0px"
	 viewBox="0 0 100 100" style="enable-background:new 0 0 100 100;" xml:space="preserve">
<style type="text/css">
	.st0{display:none;}
	.st1{display:inline;fill:#333333;}
	.st2{display:inline;}
	.st3{fill:#292929;}
	.st4{fill:#CC651D;}
	.st5{fill:#EB7424;}
	.st6{fill:#EFC29B;}
	.st7{fill:#C5A282;}
	.st8{fill:#CFAA88;}
	.st9{fill:#B19275;}
	.st10{fill:#4791AE;}
	.st11{fill:#50A4C6;}
	.st12{fill:#7DB288;}
	.st13{fill:#557F60;}
	.st14{fill:#D1D0D4;}
	.st15{fill:#AEADB0;}
	.st16{fill:#7F8283;}
	.st17{fill:#808283;}
	.st18{display:inline;fill:#FFFFFF;}
	.st19{fill:#FFFFFF;}
</style>
<g id="blacked" class="st0">
	<rect id="XMLID_27_" class="st1" width="100" height="100"/>
</g>
<g id="PlayerOne" class="st0">
	<g id="XMLID_28_" class="st2">
		<polyline id="XMLID_380_" class="st3" points="40.6,82.2 40.6,88.2 46.1,85.2 40.6,82.2 		"/>
		<polyline id="XMLID_370_" class="st3" points="30.5,68.2 30.4,68.2 40.6,73.7 40.7,73.7 30.5,68.2 		"/>
		<polyline id="XMLID_362_" class="st3" points="40.7,73.7 40.6,73.7 48.4,77.9 48.4,77.9 40.7,73.7 		"/>
		<polygon id="XMLID_298_" class="st3" points="70.7,75.8 58.5,83.3 48.4,77.9 48.4,77.9 40.6,73.7 30.4,68.2 30.4,76.7 30.4,82.7 
			40.6,88.2 40.6,82.2 46.1,85.2 48.4,86.4 48.3,92.4 58.5,97.9 70.7,91.3 70.7,85.3 		"/>
		<polyline id="XMLID_344_" class="st4" points="70.8,42.4 58.6,48.9 58.6,72.4 58.5,83.3 64.3,80.2 70.7,76.8 70.7,62.4 70.8,52.1 
					"/>
		<polyline id="XMLID_342_" class="st5" points="30.4,41.5 30.4,68.1 30.5,68.2 40.7,73.7 48.4,77.9 58.5,83.3 58.6,72.4 58.6,48.9 
			51.3,52.9 51.3,52.9 30.4,41.5 		"/>
		<polyline id="XMLID_341_" class="st6" points="25,16 25.1,43.5 32.7,47.6 49.6,56.8 49.5,49.8 49.5,29.2 25,16 		"/>
		<polyline id="XMLID_331_" class="st7" points="50.4,2.2 25,16 49.5,29.2 74.9,15.5 50.4,2.2 		"/>
		<polyline id="XMLID_329_" class="st8" points="74.9,15.5 49.5,29.2 49.5,49.8 49.6,56.8 55.4,53.6 65.2,48.3 75,43 74.9,15.5 		
			"/>
		<polyline id="XMLID_328_" class="st8" points="70.8,57.5 65.9,60.1 65.9,74.6 65.8,76.1 70.7,73.5 70.7,72 70.7,71.9 70.8,57.5 		
			"/>
		<polyline id="XMLID_327_" class="st9" points="65.8,54.8 60.9,57.4 65.9,60.1 70.8,57.5 70.7,57.5 65.8,54.8 		"/>
		<polyline id="XMLID_326_" class="st6" points="60.9,57.4 60.8,73.4 64.3,75.3 64.5,75.4 65.8,76.1 65.9,74.6 65.9,60.1 60.9,57.4 
					"/>
		<line id="XMLID_295_" class="st3" x1="64.3" y1="80.2" x2="70.7" y2="76.8"/>
	</g>
</g>
<g id="PlayerTwo">
	<g id="XMLID_29_">
		<polyline id="XMLID_209_" class="st3" points="40.7,82.2 40.7,88.2 46.3,85.2 40.7,82.2 		"/>
		<polyline id="XMLID_208_" class="st3" points="30.6,68.2 30.5,68.2 40.8,73.7 40.8,73.7 30.6,68.2 		"/>
		<polyline id="XMLID_207_" class="st3" points="40.8,73.7 40.8,73.7 48.5,77.9 48.6,77.9 40.8,73.7 		"/>
		<polygon id="XMLID_198_" class="st3" points="70.9,75.8 58.7,83.3 48.6,77.9 48.5,77.9 40.8,73.7 30.5,68.2 30.5,76.7 30.5,82.7 
			40.7,88.2 40.7,82.2 46.3,85.2 48.5,86.4 48.5,92.4 58.7,97.9 70.9,91.3 70.9,85.3 		"/>
		<polyline id="XMLID_196_" class="st10" points="70.9,42.4 58.7,48.9 58.7,72.4 58.7,83.3 64.5,80.2 70.9,76.8 70.9,62.4 
			70.9,52.1 		"/>
		<polyline id="XMLID_193_" class="st11" points="30.5,41.5 30.5,68.1 30.6,68.2 40.8,73.7 48.6,77.9 58.7,83.3 58.7,72.4 
			58.7,48.9 51.4,52.9 51.4,52.9 30.5,41.5 		"/>
		<polyline id="XMLID_183_" class="st6" points="25.1,16 25.2,43.5 32.9,47.6 49.7,56.8 49.7,49.8 49.6,29.2 25.1,16 		"/>
		<polyline id="XMLID_182_" class="st7" points="50.6,2.3 25.1,16 49.6,29.2 75.1,15.5 50.6,2.3 		"/>
		<polyline id="XMLID_180_" class="st8" points="75.1,15.5 49.6,29.2 49.7,49.8 49.7,56.8 55.6,53.6 65.3,48.3 75.1,43 75.1,15.5 		
			"/>
		<polyline id="XMLID_178_" class="st8" points="70.9,57.5 66,60.1 66,74.6 66,76.1 70.8,73.5 70.9,72 70.9,71.9 70.9,57.5 		"/>
		<polyline id="XMLID_177_" class="st9" points="65.9,54.8 61,57.5 66,60.1 70.9,57.5 70.9,57.5 65.9,54.8 		"/>
		<polyline id="XMLID_176_" class="st6" points="61,57.5 61,73.4 64.5,75.3 64.6,75.4 66,76.1 66,74.6 66,60.1 61,57.5 		"/>
		<line id="XMLID_175_" class="st3" x1="64.5" y1="80.2" x2="70.9" y2="76.8"/>
	</g>
</g>
<g id="Ground" class="st0">
	<g id="XMLID_139_" class="st2">
		<rect id="XMLID_113_" x="0" y="-0.1" class="st12" width="100.1" height="100.1"/>
		<rect id="XMLID_114_" x="8.9" y="82.4" class="st13" width="9.1" height="9.1"/>
		<rect id="XMLID_117_" x="67.9" y="68.8" class="st13" width="19.6" height="19.6"/>
		<rect id="XMLID_122_" x="39.4" y="81.4" class="st13" width="13.3" height="13.3"/>
		<rect id="XMLID_118_" x="5.1" y="11" class="st13" width="16.5" height="16.5"/>
		<rect id="XMLID_119_" x="87.5" y="44.2" class="st13" width="9.1" height="9.1"/>
		<rect id="XMLID_121_" x="82.3" y="5.3" class="st13" width="6.5" height="6.5"/>
		<rect id="XMLID_120_" x="20.8" y="50.1" class="st13" width="6.5" height="6.5"/>
		<rect id="XMLID_123_" x="52" y="20.7" class="st13" width="13.3" height="13.3"/>
	</g>
</g>
<g id="Rock" class="st0">
	<g id="XMLID_243_" class="st2">
		<polygon id="XMLID_133_" class="st14" points="47.3,13 12.7,30.2 52.3,50.2 83.7,28.3 		"/>
		<polygon id="XMLID_132_" class="st15" points="52.3,50.2 54,90 3.7,68.3 12.7,30.2 		"/>
		<polygon id="XMLID_131_" class="st16" points="83.7,28.3 52.3,50.2 54,90 98,67.8 		"/>
		<g id="XMLID_127_">
			<polyline id="XMLID_30_" class="st14" points="36,69.5 23.5,72.9 15.6,67.8 25.8,64.7 			"/>
			<polyline id="XMLID_129_" class="st15" points="15.6,67.8 6.9,80.9 19.3,86.7 23.5,72.9 15.6,67.8 			"/>
			<polyline id="XMLID_128_" class="st17" points="36,69.5 23.5,72.9 19.3,86.7 43.8,85.8 36,69.5 			"/>
		</g>
	</g>
</g>
<g id="Logo_x5F_atk" class="st0">
	<path id="XMLID_31_" class="st18" d="M83.5,10.3L65,15.9L28.2,68.7l-5.9-4.8c-1.1-0.9-2.8-0.8-3.8,0.4c-0.9,1.1-0.8,2.8,0.4,3.8
		l7.5,6.1l-9.5,14.4c-0.6,0.9-0.5,2.1,0.3,2.7c0.8,0.6,2,0.5,2.7-0.3l12.2-12.2l7.5,6.1c1.1,0.9,2.8,0.8,3.8-0.4
		c0.9-1.1,0.8-2.8-0.4-3.8L37.2,76l44.4-46.5L83.5,10.3z"/>
</g>
<g id="Logo_x5F_defend" class="st0">
	<path id="XMLID_32_" class="st18" d="M50,10.6c0,0-9.9,9.3-32.5,9.3C17.5,72.9,50,89.4,50,89.4s32.5-16.5,32.5-69.6
		C59.9,19.8,50,10.6,50,10.6z"/>
</g>
<g id="Logo_x5F_move" class="st0">
	<path id="XMLID_34_" class="st18" d="M78.6,8.6L40.9,9.1c-1.2,0-1.9,1.3-1.2,2.3l6,9.4C27.4,31.6-1.5,56.9,45,91.4
		c0,0-32.5-30.9,9-57.5l7.6,12c0.6,1,2.1,0.9,2.6-0.2L80,10.7C80.4,9.7,79.7,8.6,78.6,8.6z"/>
</g>
<g id="Logo_x5F_surrender" class="st0">
	<path id="XMLID_144_" class="st18" d="M60.4,35.3c4.2-0.3,15.4,6.3,15.4,6.3l-4.7-12.6c0,0-3.8-9.3-18.3-9.9
		c-14.4-0.5-16.6-6.6-16.6-6.7l0.1-2.3c0.1-1.4-1-2.7-2.5-2.8c-1.4-0.1-2.7,1-2.8,2.5l-4.8,79.8c-0.1,1.4,1,2.7,2.5,2.8
		c1.4,0.1,2.7-1,2.8-2.5l2.8-47.1c0-0.1,1.8-3.6,14.5,0c12.8,3.6,17.8,11.3,17.8,11.3S65,38.3,60.4,35.3z"/>
</g>
<g id="UI_x5F_time" class="st0">
	<g id="XMLID_137_" class="st2">
		<path id="XMLID_134_" class="st19" d="M73.4,23.5H26.6c-0.7,0-1.2-0.5-1.2-1.2v-4.7c0-0.7,0.5-1.2,1.2-1.2l46.9,0
			c0.7,0,1.2,0.5,1.2,1.2v4.7C74.7,23,74.1,23.5,73.4,23.5z"/>
		<path id="XMLID_136_" class="st19" d="M73.4,83.6H26.6c-0.7,0-1.2-0.5-1.2-1.2v-4.7c0-0.7,0.5-1.2,1.2-1.2h46.9
			c0.7,0,1.2,0.5,1.2,1.2v4.7C74.7,83,74.1,83.6,73.4,83.6z"/>
		<path id="XMLID_165_" class="st19" d="M58.3,55C58.3,55,58.3,55,58.3,55c-4-4.1-2.3-7.3-0.7-9c0,0,0.1-0.1,0.1-0.1
			c0.5-0.4,0.9-0.7,1.4-1.2c0,0,0.1-0.1,0.1-0.1c0,0,0,0,0,0l0,0c0.1-0.1,0.1-0.1,0.2-0.2c0.2-0.2,0.4-0.4,0.6-0.6
			c0.2-0.2,0.3-0.4,0.5-0.5c0.2-0.2,0.4-0.4,0.6-0.7c0.1-0.2,0.3-0.4,0.4-0.6c0.1-0.1,0.2-0.3,0.3-0.4c0.5-0.8,1-1.6,1.5-2.4
			c0,0,0,0,0,0c2.6-4.6,3.7-9.3,3.7-9.3h0H50.2h0h-0.4h0H33.1h0c0,0,1.1,4.6,3.7,9.3c0,0,0,0,0,0c0.5,0.8,1,1.6,1.5,2.4
			c0.1,0.1,0.2,0.3,0.3,0.4c0.1,0.2,0.3,0.4,0.4,0.6c0.2,0.2,0.4,0.4,0.6,0.7c0.2,0.2,0.3,0.4,0.5,0.5c0.2,0.2,0.4,0.4,0.6,0.6
			c0.1,0.1,0.1,0.1,0.2,0.2l0,0c0,0,0,0,0,0c0,0,0.1,0.1,0.1,0.1c0.4,0.4,0.9,0.8,1.4,1.2c0,0,0.1,0.1,0.1,0.1
			c1.6,1.7,3.3,4.9-0.7,9c0,0,0,0,0,0C35.4,60.3,33,70.4,33,70.4h0h16.8h0h0.4h0h16.8h0C67,70.4,64.6,60.3,58.3,55z M50.5,60.6
			c-0.3,0-0.6,0-0.9,0c-8.5,0.2-11.9,7.3-11.9,7.3s0-10.9,9.9-12.7c3.4-3.6,1.5-8.5,0.6-10.4c-10.5-0.8-10.5-12.9-10.5-12.9
			s14.3,4.2,13.8,8.9c0,0.1,0,0.2,0,0.3c0.7-0.3,1.2-0.3,1.1,0.5c2.7-1.4,9.4-9.7,9.4-9.7s0,11.2-10.3,12.7
			c-1.2,4.1-0.6,7.1,0.7,10.4c9.6,1.4,9.7,12.8,9.7,12.8S58.9,60.9,50.5,60.6z"/>
	</g>
</g>
<g id="UI_x5F_turn" class="st0">
	<g id="XMLID_35_" class="st2">
		<path id="XMLID_61_" class="st19" d="M48.3,11.6c-10.8,0-19.6,8.8-19.6,19.6c0,10.8,8.8,19.6,19.6,19.6S67.8,42,67.8,31.2
			C67.8,20.4,59.1,11.6,48.3,11.6z M38.1,42C24.2,26.2,45,14.7,45,14.7S30.3,23.5,38.1,42z"/>
		<path id="XMLID_37_" class="st19" d="M48.4,54.8C48.4,54.8,48.4,54.8,48.4,54.8c0,0-0.1,0-0.1,0c0,0-0.1,0-0.1,0c0,0,0,0,0,0
			C22.3,54.9,19,86.9,19,86.9h4.1c0.7-19.9,15-25.3,15-25.3c-12.2,7.8-10.2,21-9.1,25.3h19.1h0.2h29.2
			C77.5,86.9,74.2,54.9,48.4,54.8z"/>
	</g>
</g>
<g id="UI_x5F_life" class="st0">
	<path id="XMLID_65_" class="st18" d="M70.3,26.6c-8.3-3.7-16.6-0.3-21.2,8.6c-0.2,0.4-0.5,0.8-1,1.5c-0.7-1.3-1.2-2.3-1.7-3.4
		c-3.1-5.5-9.6-8.9-15.3-8c-10.6,1.7-16.3,10.5-13.7,21c1.7,7.1,6.5,12,11.7,16.8c5,4.5,9.9,9.1,14.7,13.8c1.6,1.5,2.8,3.2,3.9,4.5
		c6-5.8,11.9-11.5,17.7-17.1c4.8-4.7,10.1-8.9,12.6-15.5C81.8,39.5,78.5,30.2,70.3,26.6z M26.8,39.9c-4.8,9.5,2.1,16.4,2.1,16.4
		s-10.4-6.9-7.4-16.7c3-9.8,12.8-10.6,12.8-10.6S30.7,32.1,26.8,39.9z"/>
</g>
<g id="UI_x5F_weapon" class="st0">
	<path id="XMLID_263_" class="st18" d="M63.6,65c0-0.9-0.8-1.7-1.7-1.7H32.4c-0.9,0-1.7,0.8-1.7,1.7v5.6c0,0.9,0.8,1.7,1.7,1.7h29.5
		c0.9,0,1.7-0.8,1.7-1.7V65z"/>
	<path id="XMLID_67_" class="st18" d="M58.9,23.7c0.1-0.5-0.4-1-0.4-1.5c0-5.4-4.6-9.7-10.8-9.7c-6.2,0-10.8,4.4-10.8,9.7
		c0,0.5-0.4,1-0.4,1.5C20,33.9,20.9,67.2,21.6,77.8c0.1,1.9,1.5,3.5,3.4,3.9C29,82.6,37,84,47.7,84s18.7-1.4,22.8-2.3
		c1.9-0.4,3.3-2,3.4-3.9C74.5,67.2,75.4,33.9,58.9,23.7z M47.7,16.2c3.7,0,6.7,2.5,7,5.6c-2.1-0.7-4.4-1.1-7-1.1s-4.9,0.4-7,1.1
		C41,18.6,44,16.2,47.7,16.2z M25.4,59.9c0.6-24.7,13-34.9,13.2-35l1.8-1.5L39,25.4c-0.1,0.1-9.8,13.5-13,34.6L25.4,59.9z M67,70.6
		c0,2.8-2.3,5.1-5.1,5.1H32.4c-2.8,0-5.1-2.3-5.1-5.1V65c0-2.8,2.3-5.1,5.1-5.1h29.5c2.8,0,5.1,2.3,5.1,5.1V70.6z"/>
</g>
</svg>
